-------------------------------------------------------------------------------
Test set: com.basicecommerce.Tests
-------------------------------------------------------------------------------
Tests run: 1, Failures: 0, Errors: 0, Skipped: 0, Time elapsed: 14.808 s - in com.basicecommerce.Tests
